{
  "name": "AugmentedEquipment",
  "author": "Bahamut",
  "description": "Enhances the Player's Properties with Equipment!",
  "version": "1.3.2",
  "license": "GNU AGPLv3",
  "icon": "icon.png",
  "banner": "banner.jpg",
  "gameVersion": "Update 12 (12.01)",
  "updateUrl": "https://www.raftmodding.com/api/v1/mods/augmented-equipment/version.txt",
  "isModPermanent": false,
  "excludedFiles": []
}